zadanie2/hex_2_digit/simulation/qsim/hex_2_digit.msim.vcd
$comment
	File created using the following command:
		vcd file hex_2_digit.msim.vcd -direction
$end
$date
	Fri Mar 15 21:46:48 2024
$end
$version
	ModelSim Version 10.5b
$end
$timescale
	1ps
$end

$scope module hex_2_digit_vlg_vec_tst $end
$var reg 8 ! SW [7:0] $end
$var wire 1 " HEX0 [6] $end
$var wire 1 # HEX0 [5] $end
$var wire 1 $ HEX0 [4] $end
$var wire 1 % HEX0 [3] $end
$var wire 1 & HEX0 [2] $end
$var wire 1 ' HEX0 [1] $end
$var wire 1 ( HEX0 [0] $end
$var wire 1 ) HEX1 [6] $end
$var wire 1 * HEX1 [5] $end
$var wire 1 + HEX1 [4] $end
$var wire 1 , HEX1 [3] $end
$var wire 1 - HEX1 [2] $end
$var wire 1 . HEX1 [1] $end
$var wire 1 / HEX1 [0] $end
$var wire 1 0 LEDR [7] $end
$var wire 1 1 LEDR [6] $end
$var wire 1 2 LEDR [5] $end
$var wire 1 3 LEDR [4] $end
$var wire 1 4 LEDR [3] $end
$var wire 1 5 LEDR [2] $end
$var wire 1 6 LEDR [1] $end
$var wire 1 7 LEDR [0] $end

$scope module i1 $end
$var wire 1 8 gnd $end
$var wire 1 9 vcc $end
$var wire 1 : unknown $end
$var tri1 1 ; devclrn $end
$var tri1 1 < devpor $end
$var tri1 1 = devoe $end
$var wire 1 > ~QUARTUS_CREATED_GND~I_combout $end
$var wire 1 ? SW[0]~input_o $end
$var wire 1 @ SW[1]~input_o $end
$var wire 1 A SW[2]~input_o $end
$var wire 1 B SW[3]~input_o $end
$var wire 1 C SW[4]~input_o $end
$var wire 1 D SW[5]~input_o $end
$var wire 1 E SW[6]~input_o $end
$var wire 1 F SW[7]~input_o $end
$var wire 1 G dec1|WideOr6~0_combout $end
$var wire 1 H dec1|WideOr5~0_combout $end
$var wire 1 I dec1|WideOr4~0_combout $end
$var wire 1 J dec1|WideOr3~0_combout $end
$var wire 1 K dec1|WideOr2~0_combout $end
$var wire 1 L dec1|WideOr1~0_combout $end
$var wire 1 M dec1|WideOr0~0_combout $end
$var wire 1 N dec0|WideOr6~0_combout $end
$var wire 1 O dec0|WideOr5~0_combout $end
$var wire 1 P dec0|WideOr4~0_combout $end
$var wire 1 Q dec0|WideOr3~0_combout $end
$var wire 1 R dec0|WideOr2~0_combout $end
$var wire 1 S dec0|WideOr1~0_combout $end
$var wire 1 T dec0|WideOr0~0_combout $end
$upscope $end
$upscope $end
$enddefinitions $end
#0
$dumpvars
b0 !
0(
0'
0&
0%
0$
0#
1"
0/
0.
0-
0,
0+
0*
1)
07
06
05
04
03
02
01
00
08
19
x:
1;
1<
1=
0>
0?
0@
0A
0B
0C
0D
0E
0F
0G
0H
0I
0J
0K
0L
0M
0N
0O
0P
0Q
0R
0S
0T
$end
#10000
b100 !
1A
15
1T
1R
1Q
1N
1(
1%
1$
0"
#20000
b1100 !
b1000 !
0A
1B
14
05
0R
0Q
0N
0(
0%
0$
#30000
b1100 !
1A
15
0T
1P
1O
1'
1&
1"
#40000
b11100 !
b10100 !
b10000 !
0A
0B
1C
13
04
05
1L
1K
1J
1G
0P
0O
0'
0&
1/
1,
1+
1*
#50000
b10100 !
1A
15
1T
1R
1Q
1N
1(
1%
1$
0"
#60000
b11100 !
b11000 !
0A
1B
14
05
0R
0Q
0N
0(
0%
0$
#70000
b11100 !
1A
15
0T
1P
1O
1'
1&
1"
#80000
b111100 !
b101100 !
b100100 !
b100000 !
0A
0B
0C
1D
12
03
04
05
1M
0K
0J
1I
0G
0P
0O
0'
0&
0/
1-
0,
0+
0)
#90000
b100100 !
1A
15
1T
1R
1Q
1N
1(
1%
1$
0"
#100000
b101100 !
b101000 !
0A
1B
14
05
0R
0Q
0N
0(
0%
0$
#110000
b101100 !
1A
15
0T
1P
1O
1'
1&
1"
#120000
b111100 !
b110100 !
b110000 !
0A
0B
1C
13
04
05
1K
0I
0P
0O
0'
0&
0-
1+
#130000
b110100 !
1A
15
1T
1R
1Q
1N
1(
1%
1$
0"
#140000
b111100 !
b111000 !
0A
1B
14
05
0R
0Q
0N
0(
0%
0$
#150000
b111100 !
1A
15
0T
1P
1O
1'
1&
1"
