mux_4_1_2_bits/simulation/qsim/mux_4_1_2_bits.msim.vcd
$comment
	File created using the following command:
		vcd file mux_4_1_2_bits.msim.vcd -direction
$end
$date
	Fri Mar 22 16:10:23 2024
$end
$version
	ModelSim Version 10.5b
$end
$timescale
	1ps
$end

$scope module mux_4_1_2_bits_vlg_vec_tst $end
$var reg 2 ! S [1:0] $end
$var reg 2 " U [1:0] $end
$var reg 2 # V [1:0] $end
$var reg 2 $ W [1:0] $end
$var reg 2 % X [1:0] $end
$var wire 1 & M [1] $end
$var wire 1 ' M [0] $end

$scope module i1 $end
$var wire 1 ( gnd $end
$var wire 1 ) vcc $end
$var wire 1 * unknown $end
$var tri1 1 + devclrn $end
$var tri1 1 , devpor $end
$var tri1 1 - devoe $end
$var wire 1 . ~QUARTUS_CREATED_GND~I_combout $end
$var wire 1 / W[0]~input_o $end
$var wire 1 0 S[1]~input_o $end
$var wire 1 1 V[0]~input_o $end
$var wire 1 2 U[0]~input_o $end
$var wire 1 3 S[0]~input_o $end
$var wire 1 4 X[0]~input_o $end
$var wire 1 5 m0|m2|m~0_combout $end
$var wire 1 6 U[1]~input_o $end
$var wire 1 7 W[1]~input_o $end
$var wire 1 8 V[1]~input_o $end
$var wire 1 9 X[1]~input_o $end
$var wire 1 : m1|m2|m~0_combout $end
$upscope $end
$upscope $end
$enddefinitions $end
#0
$dumpvars
b0 !
b0 "
b0 #
b0 $
b0 %
0'
0&
0(
1)
x*
1+
1,
1-
0.
0/
00
01
02
03
04
05
06
07
08
09
0:
$end
#5000
b1 "
12
15
1'
#10000
b11 "
b1 #
b10 "
11
02
16
1:
05
0'
1&
#15000
b11 "
12
15
1'
#20000
b11 #
b1 $
b1 "
b10 #
b0 "
02
06
1/
01
18
0:
05
0'
0&
#25000
b1 "
12
15
1'
#30000
b11 "
b11 #
b10 "
11
02
16
1:
05
0'
1&
#35000
b11 "
12
15
1'
#40000
b1 !
b11 $
b1 %
b1 #
b10 $
b1 "
b0 #
b0 "
02
06
01
08
14
0/
17
13
0:
05
0'
0&
#45000
b1 "
12
#50000
b11 "
b1 #
b10 "
11
02
16
15
1'
#55000
b11 "
12
#60000
b11 #
b11 $
b1 "
b10 #
b0 "
02
06
1/
01
18
1:
05
0'
1&
#65000
b1 "
12
#70000
b11 "
b11 #
b10 "
11
02
16
15
1'
#75000
b11 "
12
#80000
b11 !
b11 %
b10 !
b1 $
b10 %
b1 #
b0 $
b1 "
b0 #
b0 "
02
06
01
08
0/
07
04
19
03
10
0:
05
0'
0&
#85000
b1 "
12
#90000
b11 "
b1 #
b10 "
11
02
16
#95000
b11 "
12
#100000
b11 #
b1 $
b1 "
b10 #
b0 "
02
06
1/
01
18
15
1'
#105000
b1 "
12
#110000
b11 "
b11 #
b10 "
11
02
16
#115000
b11 "
12
#120000
b11 !
b11 $
b11 %
b1 #
b10 $
b1 "
b0 #
b0 "
02
06
01
08
14
0/
17
13
1:
1&
#125000
b1 "
12
#130000
b11 "
b1 #
b10 "
11
02
16
#135000
b11 "
12
#140000
b11 #
b11 $
b1 "
b10 #
b0 "
02
06
1/
01
18
#145000
b1 "
12
#150000
b11 "
b11 #
b10 "
11
02
16
#155000
b11 "
12
