mux_2_1_1_bit/simulation/qsim/mux_2_1_1_bit.msim.vcd
$comment
	File created using the following command:
		vcd file mux_2_1_1_bit.msim.vcd -direction
$end
$date
	Fri Mar 22 15:54:21 2024
$end
$version
	ModelSim Version 10.5b
$end
$timescale
	1ps
$end

$scope module mux_2_1_1_bit_vlg_vec_tst $end
$var reg 1 ! s $end
$var reg 1 " x $end
$var reg 1 # y $end
$var wire 1 $ m $end

$scope module i1 $end
$var wire 1 % gnd $end
$var wire 1 & vcc $end
$var wire 1 ' unknown $end
$var tri1 1 ( devclrn $end
$var tri1 1 ) devpor $end
$var tri1 1 * devoe $end
$var wire 1 + ~QUARTUS_CREATED_GND~I_combout $end
$var wire 1 , s~input_o $end
$var wire 1 - x~input_o $end
$var wire 1 . y~input_o $end
$var wire 1 / m~0_combout $end
$upscope $end
$upscope $end
$enddefinitions $end
#0
$dumpvars
0!
0"
0#
0$
0%
1&
x'
1(
1)
1*
0+
0,
0-
0.
0/
$end
#5000
1"
1-
1/
1$
#10000
1#
0"
1.
0-
0/
0$
#15000
1"
1-
1/
1$
#20000
1!
0#
0"
1,
0.
0-
0/
0$
#25000
1"
1-
#30000
1#
0"
1.
0-
1/
1$
#35000
1"
1-
#40000
0!
0#
0"
0,
0.
0-
0/
0$
#45000
1"
1-
1/
1$
#50000
1#
0"
1.
0-
0/
0$
#55000
1"
1-
1/
1$
#60000
1!
0#
0"
1,
0.
0-
0/
0$
#65000
1"
1-
#70000
1#
0"
1.
0-
1/
1$
#75000
1"
1-
