zadanie1/bcd_to_dec_2_bits/simulation/qsim/bcd_to_dec_2_bits.msim.vcd
$comment
	File created using the following command:
		vcd file bcd_to_dec_2_bits.msim.vcd -direction
$end
$date
	Fri Mar 15 20:43:34 2024
$end
$version
	ModelSim Version 10.5b
$end
$timescale
	1ps
$end

$scope module bcd_to_dec_2_bits_vlg_vec_tst $end
$var reg 4 ! a0 [3:0] $end
$var reg 4 " a1 [3:0] $end
$var wire 1 # error_a0 $end
$var wire 1 $ error_a1 $end
$var wire 1 % o_a0 [6] $end
$var wire 1 & o_a0 [5] $end
$var wire 1 ' o_a0 [4] $end
$var wire 1 ( o_a0 [3] $end
$var wire 1 ) o_a0 [2] $end
$var wire 1 * o_a0 [1] $end
$var wire 1 + o_a0 [0] $end
$var wire 1 , o_a1 [6] $end
$var wire 1 - o_a1 [5] $end
$var wire 1 . o_a1 [4] $end
$var wire 1 / o_a1 [3] $end
$var wire 1 0 o_a1 [2] $end
$var wire 1 1 o_a1 [1] $end
$var wire 1 2 o_a1 [0] $end

$scope module i1 $end
$var wire 1 3 gnd $end
$var wire 1 4 vcc $end
$var wire 1 5 unknown $end
$var tri1 1 6 devclrn $end
$var tri1 1 7 devpor $end
$var tri1 1 8 devoe $end
$var wire 1 9 ~QUARTUS_CREATED_GND~I_combout $end
$var wire 1 : a0[3]~input_o $end
$var wire 1 ; a0[1]~input_o $end
$var wire 1 < a0[2]~input_o $end
$var wire 1 = LessThan0~0_combout $end
$var wire 1 > a1[2]~input_o $end
$var wire 1 ? a1[3]~input_o $end
$var wire 1 @ a1[1]~input_o $end
$var wire 1 A LessThan1~0_combout $end
$var wire 1 B a0[0]~input_o $end
$var wire 1 C d0|WideOr6~0_combout $end
$var wire 1 D d0|WideOr5~0_combout $end
$var wire 1 E d0|WideOr4~0_combout $end
$var wire 1 F d0|WideOr3~0_combout $end
$var wire 1 G d0|WideOr2~0_combout $end
$var wire 1 H d0|WideOr1~0_combout $end
$var wire 1 I d0|WideOr0~0_combout $end
$var wire 1 J a1[0]~input_o $end
$var wire 1 K d1|WideOr6~0_combout $end
$var wire 1 L d1|WideOr5~0_combout $end
$var wire 1 M d1|WideOr4~0_combout $end
$var wire 1 N d1|WideOr3~0_combout $end
$var wire 1 O d1|WideOr2~0_combout $end
$var wire 1 P d1|WideOr1~0_combout $end
$var wire 1 Q d1|WideOr0~0_combout $end
$upscope $end
$upscope $end
$enddefinitions $end
#0
$dumpvars
b0 !
b1001 "
0#
0$
0+
0*
0)
0(
0'
0&
1%
02
01
00
1/
1.
0-
0,
03
14
x5
16
17
18
09
0:
0;
0<
0=
0>
1?
0@
0A
0B
0C
0D
0E
0F
0G
0H
0I
1J
0K
0L
0M
1N
1O
0P
1Q
$end
#10000
b1 !
b1011 "
b1010 "
0J
1@
1B
0Q
1H
1G
1F
1C
1P
1M
1L
1K
1A
1$
12
11
10
1-
1+
1(
1'
1&
1,
#20000
b11 !
b10 !
b1011 "
1J
0B
1;
1I
0G
0F
1E
0C
0+
1)
0(
0'
0%
#30000
b1111 "
b1101 "
b11 !
b1100 "
1B
0J
0@
1>
1G
0E
0)
1'
#40000
b111 !
b101 !
b100 !
b1101 "
1J
0B
0;
1<
0H
1F
1C
1+
1(
0&
#50000
b1111 "
b101 !
b1110 "
1B
0J
1@
0F
1D
0C
0+
1*
0(
#60000
b111 !
b110 !
b1111 "
1J
0B
1;
0G
0'
#70000
b111 "
b11 "
b1 "
b111 !
b0 "
1B
0J
0@
0>
0?
0I
0P
0O
0N
0M
0L
0K
0A
1H
1G
1F
0D
0*
1(
1'
1&
0$
02
01
00
0/
0.
0-
1%
#80000
b1111 !
b1011 !
b1001 !
b1000 !
b1 "
1J
0B
0;
0<
1:
1I
0H
0G
0F
1P
1O
1N
1K
12
1/
1.
1-
0(
0'
0&
0%
#90000
b11 "
b1001 !
b10 "
1B
0J
1@
1Q
0O
0N
1M
0K
1G
1F
1(
1'
02
10
0/
0.
0,
#100000
b1011 !
b1010 !
b11 "
1J
0B
1;
0I
1H
1E
1D
1C
1=
1O
0M
00
1.
1#
1+
1*
1)
1&
1%
#110000
b111 "
b101 "
b1011 !
b100 "
1B
0J
0@
1>
0P
1N
1K
12
1/
0-
#120000
b1111 !
b1101 !
b1100 !
b101 "
1J
0B
0;
1<
0N
1L
0K
02
11
0/
#130000
b111 "
b1101 !
b110 "
1B
0J
1@
0O
0.
#140000
b1111 !
b1110 !
b111 "
1J
0B
1;
0Q
1P
1O
1N
0L
01
1/
1.
1-
1,
#150000
b1111 "
b1011 "
b1001 "
b1111 !
b1000 "
1B
0J
0@
0>
1?
1Q
0P
0O
0N
0/
0.
0-
0,
