PS3/choose_from_4_symbols/simulation/qsim/choose_from_4_symbols.msim.vcd
$comment
	File created using the following command:
		vcd file choose_from_4_symbols.msim.vcd -direction
$end
$date
	Sun Mar 10 21:58:41 2024
$end
$version
	ModelSim Version 10.5b
$end
$timescale
	1ps
$end

$scope module choose_from_4_symbols_vlg_vec_tst $end
$var reg 10 ! SW [9:0] $end
$var wire 1 " HEX0 [0] $end
$var wire 1 # HEX0 [1] $end
$var wire 1 $ HEX0 [2] $end
$var wire 1 % HEX0 [3] $end
$var wire 1 & HEX0 [4] $end
$var wire 1 ' HEX0 [5] $end
$var wire 1 ( HEX0 [6] $end
$var wire 1 ) LEDR [9] $end
$var wire 1 * LEDR [8] $end
$var wire 1 + LEDR [7] $end
$var wire 1 , LEDR [6] $end
$var wire 1 - LEDR [5] $end
$var wire 1 . LEDR [4] $end
$var wire 1 / LEDR [3] $end
$var wire 1 0 LEDR [2] $end
$var wire 1 1 LEDR [1] $end
$var wire 1 2 LEDR [0] $end

$scope module i1 $end
$var wire 1 3 gnd $end
$var wire 1 4 vcc $end
$var wire 1 5 unknown $end
$var tri1 1 6 devclrn $end
$var tri1 1 7 devpor $end
$var tri1 1 8 devoe $end
$var wire 1 9 ~QUARTUS_CREATED_GND~I_combout $end
$var wire 1 : SW[0]~input_o $end
$var wire 1 ; SW[1]~input_o $end
$var wire 1 < SW[2]~input_o $end
$var wire 1 = SW[3]~input_o $end
$var wire 1 > SW[4]~input_o $end
$var wire 1 ? SW[5]~input_o $end
$var wire 1 @ SW[6]~input_o $end
$var wire 1 A SW[7]~input_o $end
$var wire 1 B SW[8]~input_o $end
$var wire 1 C SW[9]~input_o $end
$var wire 1 D comb_13|m1|m2|m~0_combout $end
$var wire 1 E comb_13|m0|m2|m~0_combout $end
$var wire 1 F comb_14|Decoder0~0_combout $end
$upscope $end
$upscope $end
$enddefinitions $end
#0
$dumpvars
b11011 !
1(
1'
1&
1%
1$
1#
1"
12
11
00
1/
1.
0-
0,
0+
0*
0)
03
14
x5
16
17
18
09
1:
1;
0<
1=
1>
0?
0@
0A
0B
0C
1D
1E
0F
$end
#10000
b100011011 !
1B
1*
0E
0'
0&
#20000
b1100011011 !
b1100011001 !
b1100011000 !
b1100011100 !
b1100111100 !
b1100101100 !
b1101101100 !
b1001101100 !
0:
0;
1<
0>
1?
1@
0B
1C
1)
0*
1,
1-
0.
10
01
02
#30000
b1101101100 !
1B
1*
1E
0D
0%
0$
0"
1'
1&
1F
0#
0(
#40000
b1101100100 !
b1111100100 !
b111100100 !
b111100101 !
b111100001 !
b111110001 !
b110110001 !
b10110001 !
1:
0<
0=
1>
0@
1A
0B
0C
0)
0*
1+
0,
1.
0/
00
12
#50000
b110110001 !
1B
1*
0E
0'
0&
0F
1#
1(
#60000
b110110011 !
b110010011 !
b1110010011 !
b1110010010 !
b1110010110 !
b1110000110 !
b1111000110 !
b1011000110 !
0:
1;
1<
0>
0?
1@
0B
1C
1)
0*
1,
0-
0.
10
11
02
#70000
b1111000110 !
1B
1*
1E
1D
1%
1$
1"
1'
1&
#80000
b1111001110 !
b1101001110 !
b101001110 !
b101001111 !
b101001011 !
b101011011 !
b100011011 !
b11011 !
1:
0<
1=
1>
0@
0A
0B
0C
0)
0*
0+
0,
1.
1/
00
12
#90000
b100011011 !
1B
1*
0E
0'
0&
#100000
b100011001 !
b100111001 !
b1100111001 !
b1100111000 !
b1100111100 !
b1100101100 !
b1101101100 !
b1001101100 !
0:
0;
1<
0>
1?
1@
0B
1C
1)
0*
1,
1-
0.
10
01
02
#110000
b1101101100 !
1B
1*
1E
0D
0%
0$
0"
1'
1&
1F
0#
0(
#120000
b1101100100 !
b1111100100 !
b111100100 !
b111100101 !
b111100001 !
b111110001 !
b110110001 !
b10110001 !
1:
0<
0=
1>
0@
1A
0B
0C
0)
0*
1+
0,
1.
0/
00
12
#130000
b110110001 !
1B
1*
0E
0'
0&
0F
1#
1(
#140000
b110110011 !
b110010011 !
b1110010011 !
b1110010010 !
b1110010110 !
b1110000110 !
b1111000110 !
b1011000110 !
0:
1;
1<
0>
0?
1@
0B
1C
1)
0*
1,
0-
0.
10
11
02
#150000
b1111000110 !
1B
1*
1E
1D
1%
1$
1"
1'
1&
