mux_2_1_4_bits/simulation/qsim/mux_2_1_4_bits.msim.vcd
$comment
	File created using the following command:
		vcd file mux_2_1_4_bits.msim.vcd -direction
$end
$date
	Thu Mar 07 01:37:40 2024
$end
$version
	ModelSim Version 10.5b
$end
$timescale
	1ps
$end

$scope module mux_2_1_4_bits_vlg_vec_tst $end
$var reg 4 ! X [3:0] $end
$var reg 4 " Y [3:0] $end
$var reg 1 # s $end
$var wire 1 $ M [3] $end
$var wire 1 % M [2] $end
$var wire 1 & M [1] $end
$var wire 1 ' M [0] $end

$scope module i1 $end
$var wire 1 ( gnd $end
$var wire 1 ) vcc $end
$var wire 1 * unknown $end
$var tri1 1 + devclrn $end
$var tri1 1 , devpor $end
$var tri1 1 - devoe $end
$var wire 1 . ~QUARTUS_CREATED_GND~I_combout $end
$var wire 1 / s~input_o $end
$var wire 1 0 Y[0]~input_o $end
$var wire 1 1 X[0]~input_o $end
$var wire 1 2 mux0|m~0_combout $end
$var wire 1 3 X[1]~input_o $end
$var wire 1 4 Y[1]~input_o $end
$var wire 1 5 mux1|m~0_combout $end
$var wire 1 6 X[2]~input_o $end
$var wire 1 7 Y[2]~input_o $end
$var wire 1 8 mux2|m~0_combout $end
$var wire 1 9 X[3]~input_o $end
$var wire 1 : Y[3]~input_o $end
$var wire 1 ; mux3|m~0_combout $end
$upscope $end
$upscope $end
$enddefinitions $end
#0
$dumpvars
b1111 !
b1 "
0#
1'
1&
1%
1$
0(
1)
x*
1+
1,
1-
0.
0/
10
11
12
13
04
15
16
07
18
19
0:
1;
$end
#5000
1#
1/
0;
08
05
0&
0%
0$
#10000
b111 !
b101 "
0#
17
09
0/
18
15
1&
1%
#15000
1#
1/
05
0&
#20000
b101 !
b1101 !
b1 "
0#
07
03
19
0/
1;
1$
#25000
1#
1/
0;
08
0%
0$
#30000
b1001 !
b1001 "
b1011 "
b1010 "
b1011 !
0#
00
14
1:
13
06
0/
1;
15
1&
1$
#35000
1#
1/
02
0'
#40000
b1110 "
b1111 !
b110 "
b100 "
b101 "
0#
16
10
04
17
0:
0/
18
12
1'
1%
#45000
1#
1/
0;
05
0&
0$
#50000
b1110 !
b1100 !
b1000 !
b111 "
0#
14
01
03
06
0/
1;
08
02
0'
0%
1$
#55000
1#
1/
0;
18
15
12
1'
1&
1%
0$
#60000
b0 !
b11 "
b1011 "
b1010 "
b10 !
b110 !
b1000 "
0#
00
04
07
1:
13
16
09
0/
02
0'
#65000
1#
1/
1;
08
05
0&
0%
1$
#70000
b1110 !
b1100 "
0#
17
19
0/
18
15
1&
1%
#75000
1#
1/
05
0&
#80000
b110 !
b1000 "
0#
07
09
0/
0;
15
1&
0$
#85000
1#
1/
1;
08
05
0&
0%
1$
#90000
b111 !
b1001 "
b11 !
b1011 "
b1011 !
b1111 "
0#
10
14
17
11
06
19
0/
15
12
1'
1&
#95000
1#
1/
18
1%
#100000
b1010 !
b1110 "
b1110 !
b1010 "
0#
00
07
01
16
0/
02
0'
#105000
1#
1/
08
0%
#110000
b10 "
b1100 !
b1101 !
b1001 !
0#
11
03
06
0:
0/
05
12
1'
0&
#115000
1#
1/
0;
15
02
0'
1&
0$
#120000
b0 "
b1 "
b101 "
b1101 "
b1011 !
b1111 !
0#
13
16
10
04
17
1:
0/
1;
18
12
1'
1%
1$
#125000
1#
1/
05
0&
#130000
b1110 !
b101 "
b1100 !
0#
0:
01
03
0/
02
0'
#135000
1#
1/
0;
12
1'
0$
#140000
b100 !
b111 "
b110 "
b0 !
b1 !
b1110 "
0#
00
14
1:
11
06
09
0/
08
0%
#145000
1#
1/
1;
18
15
02
0'
1&
1%
1$
#150000
b1010 "
b1001 !
b1101 !
b1100 !
b10 "
0#
01
16
19
07
0:
0/
05
0&
#155000
1#
1/
0;
08
15
1&
0%
0$
