SW_TO_LEDR/simulation/qsim/SW_TO_LEDR.msim.vcd
$comment
	File created using the following command:
		vcd file SW_TO_LEDR.msim.vcd -direction
$end
$date
	Wed Mar 06 23:45:51 2024
$end
$version
	ModelSim Version 10.5b
$end
$timescale
	1ps
$end

$scope module SW_TO_LEDR_vlg_vec_tst $end
$var reg 10 ! SW [9:0] $end
$var wire 1 " LEDR [9] $end
$var wire 1 # LEDR [8] $end
$var wire 1 $ LEDR [7] $end
$var wire 1 % LEDR [6] $end
$var wire 1 & LEDR [5] $end
$var wire 1 ' LEDR [4] $end
$var wire 1 ( LEDR [3] $end
$var wire 1 ) LEDR [2] $end
$var wire 1 * LEDR [1] $end
$var wire 1 + LEDR [0] $end

$scope module i1 $end
$var wire 1 , gnd $end
$var wire 1 - vcc $end
$var wire 1 . unknown $end
$var tri1 1 / devclrn $end
$var tri1 1 0 devpor $end
$var tri1 1 1 devoe $end
$var wire 1 2 ~QUARTUS_CREATED_GND~I_combout $end
$var wire 1 3 SW[0]~input_o $end
$var wire 1 4 SW[1]~input_o $end
$var wire 1 5 SW[2]~input_o $end
$var wire 1 6 SW[3]~input_o $end
$var wire 1 7 SW[4]~input_o $end
$var wire 1 8 SW[5]~input_o $end
$var wire 1 9 SW[6]~input_o $end
$var wire 1 : SW[7]~input_o $end
$var wire 1 ; SW[8]~input_o $end
$var wire 1 < SW[9]~input_o $end
$upscope $end
$upscope $end
$enddefinitions $end
#0
$dumpvars
b1001000100 !
0+
0*
1)
0(
0'
0&
1%
0$
0#
1"
0,
1-
x.
1/
10
11
02
03
04
15
06
07
08
19
0:
0;
1<
$end
#5000
b1000100 !
0<
0"
#10000
b101000100 !
b100000100 !
b100100100 !
b100100101 !
13
18
09
1;
1#
0%
1&
1+
#20000
b110100101 !
b110100001 !
b110100011 !
b111100011 !
b111000011 !
14
05
08
19
1:
1$
1%
0&
0)
1*
#30000
b111010011 !
b11010011 !
b11010010 !
b11010110 !
b11010100 !
b10010100 !
03
04
15
17
09
0;
0#
0%
1'
1)
0*
0+
#40000
b10011100 !
b10001100 !
b110001100 !
b110001101 !
b110001001 !
b110001011 !
13
14
05
16
07
1;
1#
0'
1(
0)
1*
1+
#45000
b1110001011 !
1<
1"
#50000
b1100001011 !
b1100101011 !
b1101101011 !
b1101100011 !
b1101100010 !
b1101100000 !
03
04
06
18
19
0:
0$
1%
1&
0(
0*
0+
#55000
b101100000 !
0<
0"
#60000
b101110000 !
b100110000 !
b1100110000 !
17
09
1<
1"
0%
1'
#70000
b1100010000 !
b1100010001 !
b1100000001 !
b1101000001 !
b101000001 !
13
07
08
19
0<
0"
1%
0&
0'
1+
#80000
b111000001 !
b111000011 !
b111000010 !
b110000010 !
03
14
09
1:
1$
0%
1*
0+
#85000
b1110000010 !
1<
1"
#90000
b1110100010 !
b1110110010 !
b110110010 !
17
18
0<
0"
1&
1'
#100000
b10110010 !
b110010 !
b110011 !
b1110011 !
b1010011 !
b1000011 !
b1001000011 !
13
07
08
19
0:
0;
1<
1"
0#
0$
1%
0&
0'
1+
#110000
b1001001011 !
b1011001011 !
b1011101011 !
16
18
1:
1$
1&
1(
#115000
b11101011 !
0<
0"
#120000
b11101111 !
b11101101 !
b111101101 !
b111101100 !
b110101100 !
b110111100 !
b100111100 !
b100011100 !
b1100011100 !
03
04
15
17
08
09
0:
1;
1<
1"
1#
0$
0%
0&
1'
1)
0*
0+
#125000
b100011100 !
0<
0"
#130000
b100010100 !
b100010110 !
b10110 !
b1010110 !
b1001010110 !
14
06
19
0;
1<
1"
0#
1%
0(
1*
#140000
b1001010111 !
b1011010111 !
b1011110111 !
b1011111111 !
b1011111101 !
b1111111101 !
b1110111101 !
b110111101 !
13
04
16
18
09
1:
1;
0<
0"
1#
1$
0%
1&
1(
0*
1+
#145000
b1110111101 !
1<
1"
#150000
b1110111100 !
b1100111100 !
b1100111110 !
b1000111110 !
b1001111110 !
03
14
19
0:
0;
0#
0$
1%
1*
0+
