hex_2_digit/simulation/qsim/hex_2_digit.msim.vcd
$comment
	File created using the following command:
		vcd file hex_2_digit.msim.vcd -direction
$end
$date
	Fri Mar 22 16:44:30 2024
$end
$version
	ModelSim Version 10.5b
$end
$timescale
	1ps
$end

$scope module hex_2_digit_vlg_vec_tst $end
$var reg 4 ! a0 [3:0] $end
$var reg 4 " a1 [3:0] $end
$var wire 1 # o_a1 [6] $end
$var wire 1 $ o_a1 [5] $end
$var wire 1 % o_a1 [4] $end
$var wire 1 & o_a1 [3] $end
$var wire 1 ' o_a1 [2] $end
$var wire 1 ( o_a1 [1] $end
$var wire 1 ) o_a1 [0] $end
$var wire 1 * o_a2 [6] $end
$var wire 1 + o_a2 [5] $end
$var wire 1 , o_a2 [4] $end
$var wire 1 - o_a2 [3] $end
$var wire 1 . o_a2 [2] $end
$var wire 1 / o_a2 [1] $end
$var wire 1 0 o_a2 [0] $end

$scope module i1 $end
$var wire 1 1 gnd $end
$var wire 1 2 vcc $end
$var wire 1 3 unknown $end
$var tri1 1 4 devclrn $end
$var tri1 1 5 devpor $end
$var tri1 1 6 devoe $end
$var wire 1 7 ~QUARTUS_CREATED_GND~I_combout $end
$var wire 1 8 a1[2]~input_o $end
$var wire 1 9 a1[3]~input_o $end
$var wire 1 : a1[1]~input_o $end
$var wire 1 ; a1[0]~input_o $end
$var wire 1 < dec1|WideOr6~0_combout $end
$var wire 1 = dec1|WideOr5~0_combout $end
$var wire 1 > dec1|WideOr4~0_combout $end
$var wire 1 ? dec1|WideOr3~0_combout $end
$var wire 1 @ dec1|WideOr2~0_combout $end
$var wire 1 A dec1|WideOr1~0_combout $end
$var wire 1 B dec1|WideOr0~0_combout $end
$var wire 1 C a0[3]~input_o $end
$var wire 1 D a0[1]~input_o $end
$var wire 1 E a0[0]~input_o $end
$var wire 1 F a0[2]~input_o $end
$var wire 1 G dec0|WideOr6~0_combout $end
$var wire 1 H dec0|WideOr5~0_combout $end
$var wire 1 I dec0|WideOr4~0_combout $end
$var wire 1 J dec0|WideOr3~0_combout $end
$var wire 1 K dec0|WideOr2~0_combout $end
$var wire 1 L dec0|WideOr1~0_combout $end
$var wire 1 M dec0|WideOr0~0_combout $end
$upscope $end
$upscope $end
$enddefinitions $end
#0
$dumpvars
b0 !
b1100 "
0)
1(
1'
0&
0%
0$
1#
00
0/
0.
0-
0,
0+
1*
01
12
x3
14
15
16
07
18
19
0:
0;
0<
1=
1>
0?
0@
0A
0B
0C
0D
0E
0F
0G
0H
0I
0J
0K
0L
0M
$end
#10000
b1 !
b1101 "
1;
1E
1B
1L
1K
1J
1G
1A
0>
0=
1<
1)
0(
0'
1$
10
1-
1,
1+
0#
#20000
b11 !
b1111 "
b10 !
b1110 "
0;
1:
0E
1D
1M
0K
0J
1I
0G
0A
1>
1=
0<
0)
1(
1'
0$
00
1.
0-
0,
0*
#30000
b11 !
b1111 "
1;
1E
1K
0I
1?
1&
0.
1,
#40000
b111 !
b111 "
b11 "
b101 !
b1 "
b100 !
b0 "
0;
0:
08
09
0E
0D
1F
0B
0L
1J
1G
0?
0>
0=
0(
0'
0&
10
1-
0+
1#
#50000
b101 !
b1 "
1;
1E
0J
1H
0G
1A
1@
1?
1<
1)
1&
1%
1$
00
1/
0-
#60000
b111 !
b11 "
b110 !
b10 "
0;
1:
0E
1D
1B
0K
0@
0?
1>
0<
0)
1'
0&
0%
0,
0#
#70000
b111 !
b11 "
1;
1E
0M
1L
1K
1J
0H
1@
0>
0'
1%
0/
1-
1,
1+
1*
#80000
b1111 !
b1011 !
b111 "
b1001 !
b101 "
b1000 !
b100 "
0;
0:
18
0E
0D
0F
1C
1M
0L
0K
0J
0A
1?
1<
1)
1&
0$
0-
0,
0+
0*
#90000
b1001 !
b101 "
1;
1E
1K
1J
0?
1=
0<
0)
1(
0&
1-
1,
#100000
b1011 !
b111 "
b1010 !
b110 "
0;
1:
0E
1D
0K
0@
0%
0,
#110000
b1011 !
b111 "
1;
1E
0B
0J
1H
1G
1A
1@
1?
0=
0(
1&
1%
1$
10
1/
0-
1#
#120000
b1111 "
b1111 !
b1011 "
b1101 !
b1001 "
b1100 !
b1000 "
0E
0D
1F
0;
0:
08
19
1B
0M
0A
0@
0?
1I
0G
00
1.
0&
0%
0$
1*
0#
#130000
b1101 !
b1001 "
1;
1E
1M
1L
0I
0H
1G
1@
1?
1&
1%
10
0/
0.
1+
0*
#140000
b1111 !
b1011 "
b1110 !
b1010 "
0;
1:
0E
1D
0L
1I
1H
0G
0@
0%
00
1/
1.
0+
#150000
b1111 !
b1011 "
1;
1E
1J
0?
1=
1<
1)
1(
0&
1-
