choose_from_4_symbols/simulation/qsim/choose_from_4_symbols.msim.vcd
$comment
	File created using the following command:
		vcd file choose_from_4_symbols.msim.vcd -direction
$end
$date
	Thu Mar 14 16:11:27 2024
$end
$version
	ModelSim Version 10.5b
$end
$timescale
	1ps
$end

$scope module choose_from_4_symbols_vlg_vec_tst $end
$var reg 10 ! SW [9:0] $end
$var wire 1 " HEX0 [0] $end
$var wire 1 # HEX0 [1] $end
$var wire 1 $ HEX0 [2] $end
$var wire 1 % HEX0 [3] $end
$var wire 1 & HEX0 [4] $end
$var wire 1 ' HEX0 [5] $end
$var wire 1 ( HEX0 [6] $end
$var wire 1 ) LEDR [9] $end
$var wire 1 * LEDR [8] $end
$var wire 1 + LEDR [7] $end
$var wire 1 , LEDR [6] $end
$var wire 1 - LEDR [5] $end
$var wire 1 . LEDR [4] $end
$var wire 1 / LEDR [3] $end
$var wire 1 0 LEDR [2] $end
$var wire 1 1 LEDR [1] $end
$var wire 1 2 LEDR [0] $end

$scope module i1 $end
$var wire 1 3 gnd $end
$var wire 1 4 vcc $end
$var wire 1 5 unknown $end
$var tri1 1 6 devclrn $end
$var tri1 1 7 devpor $end
$var tri1 1 8 devoe $end
$var wire 1 9 ~QUARTUS_CREATED_GND~I_combout $end
$var wire 1 : SW[0]~input_o $end
$var wire 1 ; SW[1]~input_o $end
$var wire 1 < SW[2]~input_o $end
$var wire 1 = SW[3]~input_o $end
$var wire 1 > SW[4]~input_o $end
$var wire 1 ? SW[5]~input_o $end
$var wire 1 @ SW[6]~input_o $end
$var wire 1 A SW[7]~input_o $end
$var wire 1 B SW[8]~input_o $end
$var wire 1 C SW[9]~input_o $end
$var wire 1 D comb_13|m0|m2|m~0_combout $end
$var wire 1 E comb_13|m1|m2|m~0_combout $end
$var wire 1 F comb_14|Decoder0~0_combout $end
$var wire 1 G comb_14|Decoder0~1_combout $end
$var wire 1 H comb_14|Decoder0~2_combout $end
$upscope $end
$upscope $end
$enddefinitions $end
#0
$dumpvars
b1100011 !
0(
0'
1&
0%
0$
1#
0"
12
11
00
0/
0.
1-
1,
0+
0*
0)
03
14
x5
16
17
18
09
1:
1;
0<
0=
0>
1?
1@
0A
0B
0C
1D
0E
1F
0G
1H
$end
#10000
b101100011 !
b101101011 !
b101101001 !
b101101000 !
0:
0;
1=
1B
1*
1/
01
02
1E
0D
0#
1$
0H
1G
1'
0&
#20000
b1101101000 !
b1111101000 !
b1110101000 !
b1110111000 !
b1110111100 !
b1010111100 !
b1010110100 !
b1010110101 !
1:
1<
0=
1>
0@
1A
0B
1C
1)
0*
1+
0,
1.
0/
10
12
0E
1D
1#
0$
1H
0G
0'
1&
#30000
b1010110111 !
b1110110111 !
b1110111111 !
b1110111110 !
0:
1;
1=
1B
1*
1/
11
02
1E
0D
0#
1$
0H
1G
1'
0&
#40000
b1110011110 !
b110011110 !
b111011110 !
b111001110 !
b111001010 !
b11001010 !
b11000010 !
b11000011 !
1:
0<
0=
0>
0?
1@
0B
0C
0)
0*
1,
0-
0.
0/
00
12
1D
1#
0G
0'
#50000
b11000001 !
b111000001 !
b111001001 !
b111001000 !
0:
0;
1=
1B
1*
1/
01
02
0E
0D
0#
0$
0F
1(
#60000
b101001000 !
b1101001000 !
b1100001000 !
b1100011000 !
b1100011100 !
b1000011100 !
b1000010100 !
b1000010101 !
1:
1<
0=
1>
0@
0A
0B
1C
1)
0*
0+
0,
1.
0/
10
12
1D
1#
1F
1H
1&
0(
#70000
b1000010111 !
b1100010111 !
b1100011111 !
b1100011110 !
0:
1;
1=
1B
1*
1/
11
02
1E
0D
0#
1$
0H
1G
1'
0&
#80000
b1100111110 !
b100111110 !
b101111110 !
b101101110 !
b101101010 !
b1101010 !
b1100010 !
b1100011 !
1:
0<
0=
0>
1?
1@
0B
0C
0)
0*
1,
1-
0.
0/
00
12
0E
1D
1#
0$
1H
0G
0'
1&
#90000
b1100001 !
b101100001 !
b101101001 !
b101101000 !
0:
0;
1=
1B
1*
1/
01
02
1E
0D
0#
1$
0H
1G
1'
0&
#100000
b111101000 !
b1111101000 !
b1110101000 !
b1110111000 !
b1110111100 !
b1010111100 !
b1010110100 !
b1010110101 !
1:
1<
0=
1>
0@
1A
0B
1C
1)
0*
1+
0,
1.
0/
10
12
0E
1D
1#
0$
1H
0G
0'
1&
#110000
b1010110111 !
b1110110111 !
b1110111111 !
b1110111110 !
0:
1;
1=
1B
1*
1/
11
02
1E
0D
0#
1$
0H
1G
1'
0&
#120000
b1110011110 !
b110011110 !
b111011110 !
b111001110 !
b111001010 !
b11001010 !
b11000010 !
b11000011 !
1:
0<
0=
0>
0?
1@
0B
0C
0)
0*
1,
0-
0.
0/
00
12
1D
1#
0G
0'
#130000
b11000001 !
b111000001 !
b111001001 !
b111001000 !
0:
0;
1=
1B
1*
1/
01
02
0E
0D
0#
0$
0F
1(
#140000
b101001000 !
b1101001000 !
b1100001000 !
b1100011000 !
b1100011100 !
b1000011100 !
b1000010100 !
b1000010101 !
1:
1<
0=
1>
0@
0A
0B
1C
1)
0*
0+
0,
1.
0/
10
12
1D
1#
1F
1H
1&
0(
#150000
b1000010111 !
b1100010111 !
b1100011111 !
b1100011110 !
0:
1;
1=
1B
1*
1/
11
02
1E
0D
0#
1$
0H
1G
1'
0&
