KEY_TO_LEDR/simulation/qsim/KEY_TO_LEDR.msim.vcd
$comment
	File created using the following command:
		vcd file KEY_TO_LEDR.msim.vcd -direction
$end
$date
	Thu Mar 07 00:17:44 2024
$end
$version
	ModelSim Version 10.5b
$end
$timescale
	1ps
$end

$scope module KEY_TO_LEDR_vlg_vec_tst $end
$var reg 4 ! KEY [3:0] $end
$var wire 1 " LEDR [3] $end
$var wire 1 # LEDR [2] $end
$var wire 1 $ LEDR [1] $end
$var wire 1 % LEDR [0] $end

$scope module i1 $end
$var wire 1 & gnd $end
$var wire 1 ' vcc $end
$var wire 1 ( unknown $end
$var tri1 1 ) devclrn $end
$var tri1 1 * devpor $end
$var tri1 1 + devoe $end
$var wire 1 , ~QUARTUS_CREATED_GND~I_combout $end
$var wire 1 - KEY[0]~input_o $end
$var wire 1 . KEY[1]~input_o $end
$var wire 1 / KEY[2]~input_o $end
$var wire 1 0 KEY[3]~input_o $end
$upscope $end
$upscope $end
$enddefinitions $end
#0
$dumpvars
b1100 !
0%
0$
1#
1"
0&
1'
x(
1)
1*
1+
0,
0-
0.
1/
10
$end
#10000
b1110 !
1.
1$
#20000
b1010 !
b1000 !
0.
0/
0#
0$
#30000
b0 !
b10 !
1.
00
0"
1$
#40000
b110 !
b1110 !
1/
10
1"
1#
#50000
b1111 !
b1101 !
1-
0.
0$
1%
#60000
b1001 !
b1 !
b0 !
0-
0/
00
0"
0#
0%
#70000
b10 !
b110 !
b111 !
1-
1.
1/
1#
1$
1%
#80000
b1111 !
b1011 !
b1010 !
0-
0/
10
1"
0#
0%
#90000
b1000 !
b1100 !
0.
1/
1#
0$
#100000
b100 !
00
0"
#110000
b110 !
b10 !
1.
0/
0#
1$
#120000
b11 !
1-
1%
#130000
b111 !
b110 !
0-
1/
1#
0%
#140000
b1110 !
b1010 !
b1011 !
1-
0/
10
1"
0#
1%
#150000
b1001 !
b1101 !
b1100 !
0-
0.
1/
1#
0$
0%
